{
    "info": {
        "count": 51,
        "pages": 3,
        "next": "https://rickandmortyapi.com/api/episode/?page=2",
        "prev": null
    },
    "results": [
        {
            "id": 1,
            "name": "Pilot",
            "air_date": "December 2, 2013",
            "episode": "S01E01",
            "characters": [
                "https://rickandmortyapi.com/api/character/1",
                "https://rickandmortyapi.com/api/character/2",
                "https://rickandmortyapi.com/api/character/3",
                "https://rickandmortyapi.com/api/character/4",
                "https://rickandmortyapi.com/api/character/5",
                "https://rickandmortyapi.com/api/character/6",
                "https://rickandmortyapi.com/api/character/7",
                "https://rickandmortyapi.com/api/character/8",
                "https://rickandmortyapi.com/api/character/9",
                "https://rickandmortyapi.com/api/character/10",
                "https://rickandmortyapi.com/api/character/11",
                "https://rickandmortyapi.com/api/character/12",
                "https://rickandmortyapi.com/api/character/13",
                "https://rickandmortyapi.com/api/character/14",
                "https://rickandmortyapi.com/api/character/15",
                "https://rickandmortyapi.com/api/character/16",
                "https://rickandmortyapi.com/api/character/17",
                "https://rickandmortyapi.com/api/character/18",
                "https://rickandmortyapi.com/api/character/19"
            ],
            "url": "https://rickandmortyapi.com/api/episode/1",
            "created": "2017-11-10T12:56:33.798Z"
        }
    ]
    }